1
994531
1
994531
817526
817526
284891
499333
1
994531
519372
530139
1759
450940
341656
88358
530139
519372
229317
530139
499333
566444
358762
530139
519372
893534
707538
910645
737398
330152
749721
817526
1759
78077
39955
162492
555436
330152
910645
759458
519372
218730
893534
920400
940302
707538
1759
153893
574038
574038
358762
944079
904022
1759
530139
450940
20865
750103
602092
758249
17212
758249
910645
749721
17212
896509
66922
1759
212216
499333
280651
267148
817526
707538
311595
370362
187829
311595
31470
525573
817526
311595
910645
566444
697783
212216
250824
651296
904022
707538
519372
946686
284891
525573
904022
78077
946686
758249
288686
904022
651296
397131
750103
499333
175805
370362
721231
530139
288686
651296
166422
574974
153893
574038
840864
397131
245588
874778
78077
78077
759458
920400
499333
563197
815298
280651
721231
98067
914691
232037
152260
468618
910645
178
574038
574038
11699
427205
341656
715642
525573
284891
966741
267148
511329
542613
232037
83420
31470
555436
516250
651911
368858
525573
212216
591484
994531
218730
896509
749721
749419
665844
456083
456083
574038
5675
499333
651296
737398
574974
370362
5709
570207
504145
602092
153893
840864
370362
721231
36219
566444
162492
893534
560541
47779
543238
852925
456083
622422
946686
347495
442560
36219
624612
504145
896509
707538
613661
530139
363099
865747
319382
162492
157173
651296
886542
317109
183097
821010
153893
83527
555436
624612
281950
715642
11699
758249
949078
944690
82692
152260
347495
810375
152260
824649
886542
384397
707149
939936
66922
186222
657061
382854
186222
247183
111423
22076
539275
311595
229317
121569
809218
560541
311595
570207
31470
749419
875963
315468
83420
893534
22076
351993
311595
288686
154196
725403
555436
665844
828619
931104
966741
123223
489956
157173
47779
94170
232037
519372
946686
920400
311595
725403
83527
944079
194716
614613
654264
269928
101258
174152
229317
749721
257096
91990
514944
46345
852960
488280
920400
152260
810375
561432
749721
267148
281950
789206
934889
817526
93163
101258
543786
350943
64982
358762
716686
317109
652286
78077
424007
112529
397131
83420
138081
678555
896509
510977
796470
232464
542613
555436
251052
561432
934102
749721
525682
824692
821010
944079
677988
519372
397131
678975
144628
613661
560541
92416
17212
824692
840864
31470
665844
939936
524978
875963
801652
614613
665844
934889
456083
162492
186222
172671
39955
47779
198409
200642
78077
397131
29527
341032
969588
363099
924766
908712
221582
330152
78077
752012
82692
54637
212216
737398
632335
572605
98067
815298
54637
64982
174152
121569
758672
398950
207344
270955
1
839206
513075
678975
159986
725403
426806
345956
665844
516250
543238
94170
514944
66922
68946
855921
887962
91990
758672
920400
207344
678555
593774
968224
573615
622422
376129
345956
737398
593774
288686
374835
280651
544551
824649
264927
749721
442560
845902
510977
672105
542613
382854
28572
341656
78366
157173
427205
194916
284891
125016
71631
651296
342140
613661
263708
556663
65424
839206
341656
671734
499401
963528
511109
632335
347495
845660
315468
690037
504854
281950
832058
664675
112529
163667
572605
281950
284891
152260
796470
442823
866599
524978
737398
574878
2055
415749
63198
355818
929173
345956
121569
677865
651911
795958
464648
939936
660062
590289
351993
162492
959849
90782
707538
433624
595586
97897
707149
418477
311421
934889
206957
10092
750103
639976
574878
370362
386669
716686
622499
946686
837904
48751
341032
939936
931104
610331
525682
150518
131224
828033
264927
718015
759458
175396
415146
129196
108284
435831
639601
862232
221582
742406
31470
866599
48857
880680
48857
940302
90782
48751
801052
11699
302310
286004
92416
558696
824692
478010
150518
424007
252357
868326
19326
1759
584954
680616
351993
186222
252246
587210
796470
753903
424007
704050
75649
855921
41196
809218
415437
813627
340365
489956
817526
17816
569691
129196
945511
210192
175396
560891
613542
852960
22076
531534
93163
659066
871931
478010
661953
664675
815298
813627
250824
17816
763225
288686
845660
652286
845660
39955
144628
614613
453851
442784
250824
320453
654264
54637
306139
907419
602498
29527
845902
730215
260249
141969
280191
492378
942150
974687
83527
517597
864331
180873
286004
728977
210192
58246
979620
172411
306104
896080
224511
942150
386669
540331
584954
267148
489956
488210
896509
819885
68946
946686
614613
790874
149678
1099
660062
418477
749419
639976
865747
17816
368858
847388
442687
896509
742557
378378
393284
98067
682419
920400
430158
839273
566486
18489
920400
353781
880680
896509
378378
349531
172671
574878
871931
334073
181978
247183
914691
74532
544555
690037
1
476717
114120
828619
464648
103593
949078
624013
57403
382854
991176
251052
207999
145270
849255
492902
504854
838845
743733
942150
47779
816639
248763
149305
147728
476717
224023
542613
758672
131224
511329
781917
180873
370727
596993
187829
430158
874778
934102
816442
430158
284891
386990
809218
44210
841249
801652
301964
461512
804676
163667
519372
183097
845902
442823
91990
201777
489956
512099
512099
911726
967064
839257
17212
477712
598778
418477
100796
184731
10256
269306
560891
585571
477712
218730
109327
192222
44210
704050
881737
596993
221582
393284
964429
991176
680616
795523
24807
708278
664675
22076
363315
195582
347495
965082
485351
1759
1
615513
82692
265654
221582
868326
993202
657061
896509
789206
759744
106446
442823
46345
828033
504854
610331
914691
510352
749419
910645
926387
956021
954438
787682
584954
172411
368334
194916
821010
823778
759458
370362
683229
503541
157173
159986
698637
221582
934889
435831
721730
540891
204539
381817
477965
781917
36219
158993
252246
584954
646278
362798
566486
488304
403187
107151
913802
817526
286004
29527
874895
840864
323114
442784
38809
587210
756675
499333
662068
2055
634277
944079
964189
710967
504854
725403
48857
51739
579168
175805
288686
956021
145270
678555
330963
339723
193089
698637
439655
386990
187829
444986
362798
777186
435831
504145
967064
286435
787682
490010
98579
172411
920400
894961
194916
826746
432798
298775
368059
848287
135459
881621
445904
224023
677061
667290
442372
887962
306139
910645
688100
92733
317109
853391
647591
394510
795523
526666
450940
574878
894621
39636
286004
923721
286435
587210
883794
442560
305540
742557
977936
893534
198409
252357
489956
621812
91990
716686
415146
895341
865168
910787
881820
29241
263708
622499
177442
830694
250737
177442
679221
894961
896358
377168
516250
351993
172411
560541
880680
53597
298078
518846
789206
286004
546385
393284
474155
834540
461965
381817
499333
301964
893534
627196
98579
317713
574878
692328
678975
742180
17816
270121
639976
227228
654264
49964
444986
280651
701955
394510
340312
753695
513075
170765
178
503774
133849
672520
648017
405127
758672
133849
172671
740376
732514
939532
317064
727149
288686
259320
561816
374835
345762
982795
344634
668615
883794
374835
925686
742406
74532
944690
147728
382854
474290
503541
697783
488210
111169
377113
516061
878771
976826
596993
101258
488950
838470
141969
568777
107903
486645
111169
456083
28572
374835
378378
648017
716686
363099
895341
131224
970846
736329
728663
195582
678555
330963
168722
752030
698637
24807
677865
250737
934663
910787
894218
690037
492863
742406
82692
848285
841166
17212
910658
644170
862232
19326
250737
774389
474290
819885
201565
224953
648017
349192
167378
317713
531534
946686
891990
66475
386447
150518
868803
533330
252008
372878
134001
866599
572605
341032
90760
862616
848760
5709
109327
177442
368858
546385
451436
205422
848760
503910
374835
985522
210192
423870
512099
224776
524978
771410
629768
121569
551244
149527
841166
677061
646409
249120
721231
618309
135459
540891
49964
514944
663932
175396
257096
98067
727149
539037
758672
222516
18489
659066
305540
910645
959849
663264
265654
942150
194716
557042
354964
53597
20433
505612
728561
297455
994531
252246
128553
466861
6039
926649
175805
171828
896509
752030
377729
953376
893009
384397
813627
382289
853391
107151
415437
839257
58237
949724
269306
557743
393284
849453
192362
774443
178609
363099
228251
875963
964429
976471
474290
87814
339723
503222
632953
382854
657061
187829
280651
18489
168149
874778
273331
853391
914906
503541
358762
597056
881820
41196
439655
44866
305540
125836
736329
694150
365162
856669
894791
730215
126432
415800
200081
201619
738585
606622
248763
144079
183097
341656
840864
14878
571422
414965
179883
232464
183097
774443
304292
921345
646505
632845
382854
378378
243162
471138
799540
410938
647176
964189
801652
326036
118828
708780
351476
793309
668615
677865
525461
660807
434697
368059
544551
87814
14930
108802
904264
41196
426806
880048
64982
731954
914906
773980
354964
978652
252696
217498
265654
181978
339723
985522
750575
748179
186222
466861
283742
131547
565868
994531
237046
733786
306104
772270
263708
134001
672520
340365
771410
845678
349192
306104
304850
347495
851544
959849
944641
622499
94170
149779
140603
701837
243810
444986
44210
988814
944176
14878
75649
720807
324217
821010
515597
150518
232623
586650
398950
925259
756232
568777
41196
451436
885673
226871
752449
170765
827814
672105
835011
796470
875963
93163
193089
99660
540331
605838
936090
682419
526637
580701
415437
386990
429564
565868
178
716686
651737
586233
557743
149779
800089
905943
574038
363099
817526
142367
993202
249120
809244
105066
777142
950339
761473
846282
512099
67521
809244
848285
520680
22076
304519
739498
18489
104482
929471
968224
66961
131224
19185
646409
591251
881661
748359
503541
721730
632953
751719
495072
531534
834592
898830
558882
674466
248763
540148
22076
394515
886542
517597
362798
5675
861582
66922
740568
163667
733206
856669
236566
628440
608821
181978
585571
944176
167378
382565
25128
355818
940302
73353
371398
351877
226871
591629
232037
587210
145395
716686
114120
610331
584954
597056
975114
742557
478117
848287
557743
665844
211625
816442
568307
107151
415437
48984
336320
49583
149779
740568
70338
107903
76107
447897
150518
729582
558696
408514
915263
555436
228624
617553
317947
344634
894218
862616
243162
678975
698637
354964
633406
708378
218308
639976
610331
586627
336046
742305
355818
142367
19185
503774
584954
68946
464633
341032
266956
661953
233749
597056
372878
58716
719879
925686
342140
910679
914002
948783
403515
946686
926387
483259
302576
374835
634277
824649
956538
721730
304519
896358
275721
403624
227357
162839
382854
191784
674260
29527
980771
874778
628440
287220
244317
808879
394510
898051
809218
882506
856669
778207
704935
253006
687540
355442
342140
883678
881387
600775
492734
549996
748289
781373
519372
519372
252696
730770
841249
447897
279602
910658
678936
777186
877684
813805
574891
803670
474256
84395
999930
378050
407454
716686
54637
905943
894218
979826
369031
233749
746682
212216
94170
904022
326441
658785
752012
439364
340365
766461
181978
158993
38643
19191
861582
378378
493514
735935
381202
720363
759161
567072
853281
646505
750575
721000
518745
378915
488950
807458
495072
61610
34385
378854
394515
607438
457018
823778
182509
589122
224776
143046
84395
511109
611323
970846
170765
377769
718931
761736
910645
840934
743733
861317
250824
499125
581938
522880
824649
435739
516044
101258
719879
864331
377769
489956
191784
605841
994531
305221
525947
410763
553792
187383
184731
748179
145395
24352
896509
777186
856276
849442
104482
852486
244317
382289
423573
719506
617553
478117
76107
964189
444521
634277
868803
711803
525573
291238
254204
628543
460548
243810
434497
191784
205422
11756
934648
403034
593774
350133
312332
170431
14836
124313
503774
58355
696266
167378
656394
919530
107903
382289
151192
306139
914906
714550
560541
267148
523095
910679
302198
212013
800089
696858
633406
22940
44866
881387
465725
845531
44210
964189
956284
866599
439919
488210
192362
672105
477712
374835
68946
513075
24352
877684
989987
952409
648017
816092
312332
785767
763225
562752
356870
666567
499401
677664
739498
827403
400910
418477
594806
975925
849937
936090
340365
281950
704935
281568
696858
212013
913802
518846
296548
221582
859117
301964
26200
24352
622499
871931
353781
430158
126679
492081
442687
547078
66961
253006
625607
553792
664675
646278
430158
533330
956964
852486
911375
691908
408514
49964
916731
963842
652279
434697
735935
169084
391993
6039
198702
359629
585928
637395
935854
224511
864154
957350
934663
696266
368334
646278
512879
847388
64982
964189
956538
698637
851544
453320
904022
194178
353781
960251
280191
732873
910787
641918
815298
336453
891675
553792
90911
881820
66475
910658
752030
975925
41196
967395
683707
244317
964189
762920
892915
38643
707149
567852
823307
852925
748179
90574
257096
733786
828033
252357
132453
650429
474256
719506
656181
934883
889339
296548
205603
476236
353852
434497
648816
168722
403034
344827
19191
710981
330963
792370
308766
896509
851558
809567
408514
996309
174270
692523
947341
372128
870438
483259
631068
586650
464470
41196
2055
810375
417207
403515
919530
453320
77624
420896
560891
965314
476905
692328
518148
526314
345762
947080
608821
291238
34705
796989
784078
904674
405127
333528
586650
181978
639601
147543
516037
66961
881387
243810
353852
418477
200334
355818
206957
771410
515602
348839
934663
490375
256197
521646
915263
66922
66472
834592
106446
461512
291409
904674
122531
426806
390862
564873
557743
864154
514019
712793
326036
759458
282330
267148
749721
285532
358214
930220
29241
789764
983378
772749
88355
907419
465569
158213
870438
442823
549565
748289
851190
369316
111699
947586
390106
418477
903417
370362
460548
490375
722262
934648
598407
580302
471115
317109
739972
743809
455988
98850
484539
319382
653819
459707
923742
311595
827403
377769
227357
522880
128864
721231
673426
138081
815848
585805
622422
193089
734805
407151
677865
580238
707149
987256
504159
356870
814893
784078
624528
661386
113029
580238
925259
152260
270955
363099
384984
280651
442687
847388
688100
103995
827403
350133
869297
761473
613661
377113
362727
628830
970473
757423
407151
453753
90911
348839
585805
687540
952411
174270
889339
510977
144093
459707
92008
104482
82066
910679
122531
940302
315468
490560
838470
627196
1
251052
310574
751719
721231
714550
586030
282330
663264
61610
795958
717463
836654
571422
378915
282923
717043
415800
34385
481092
605841
264927
841249
366604
859117
905017
286682
774389
151239
846282
378579
479280
684197
700096
178427
25128
520680
846282
894791
570207
147728
137637
646278
442372
30577
133077
561432
673426
540891
267148
83420
924766
943636
162839
147489
904674
813627
634277
943464
674263
296548
377113
194716
944079
303179
988406
162839
222516
232623
651296
900355
180873
513075
286682
292867
47779
105066
247865
715759
170431
832058
567072
144093
898051
678975
917176
698172
230874
583545
963528
207344
783541
590289
262279
343104
914906
415705
505612
493514
5675
804656
168745
608821
849453
76107
667774
486274
736184
774602
967395
39955
431894
938377
987232
422742
341641
698172
901307
194178
158213
76107
910645
32879
524828
170431
732514
74532
646278
51455
296548
339321
596870
133077
826746
894961
439364
594172
630100
537491
345661
619821
147489
710967
848760
956538
800089
718015
415254
90760
315468
103995
680616
807458
272347
250824
31470
894961
966851
492863
586063
866320
924766
58749
368858
856979
738585
893362
752627
243810
693641
947341
317109
686463
985522
55385
415437
117252
827814
403515
711803
432798
200642
633406
728977
541414
628830
384397
243229
697937
517385
988234
488304
432818
829106
735935
368786
894621
144293
584507
808009
602498
108802
871830
304844
525947
687540
227930
155031
114227
833405
280191
166986
5675
160183
801052
918295
323114
396173
860608
829722
886542
925686
354336
409214
159986
932986
945511
839273
201407
836976
330963
953243
952607
505612
544889
152619
732873
626185
123837
69329
366351
761736
693656
163667
771533
622513
840934
650429
893534
746532
651031
752030
774389
30076
615513
222516
518148
613661
298775
627489
82357
437980
964189
135459
545747
228251
36219
468618
477965
666651
914680
471717
877213
294185
63198
461965
445598
940303
835011
82124
48984
250737
989987
631567
607025
572483
714786
404330
298538
447035
589122
384630
634583
45223
568742
212216
342734
48517
721944
808137
29527
554062
362798
962352
485203
264669
375711
587419
298078
1099
173413
566444
435831
299219
934793
88447
129196
711225
631068
29241
118828
147543
690974
133727
659066
355442
793099
980771
989947
488280
138081
621924
639976
707149
975925
572705
1759
605841
393284
714815
627196
952419
891990
465725
985729
345762
853377
792370
317947
109327
681094
453851
442372
171828
228624
693656
686463
89104
809235
904606
518745
424007
578433
573048
404330
358214
407203
117252
919530
910787
414965
355224
463733
560415
585952
711225
82692
936090
689140
735172
722262
104482
875963
589483
210392
171675
129521
617553
409616
264927
687540
453959
48517
780932
740376
201046
76996
117513
403515
98850
866320
465725
511329
432818
988234
641364
48656
684197
154196
182324
523095
597056
195136
774941
642999
8107
153075
493473
824649
560415
904674
680541
728663
659060
774443
780932
803740
462885
323762
596870
11756
98067
864331
736180
206522
745251
781917
311421
677805
813875
750852
291238
213468
628877
617553
769866
155031
988422
168780
824995
791505
894218
108670
905057
113029
946686
758672
378050
400231
726568
755212
822115
286435
695261
234711
714493
262279
97897
61960
810546
29304
317976
293740
385821
563197
486665
779113
610794
663264
837904
664675
836654
375711
332202
740960
204969
525682
692253
362144
404332
853377
326036
533957
767138
103150
774941
105790
974687
104612
622528
10092
976756
740376
283747
46580
823307
198702
415240
349831
437980
351877
448366
149527
88358
777142
14930
859117
880838
257433
603830
869291
621284
334073
40824
490375
788864
759744
194716
637592
71019
488279
803352
455158
103150
398163
214470
990031
952419
951782
887810
570782
910645
934889
443330
19326
29527
644170
886542
145395
416338
595586
428689
19227
686463
586233
474155
865747
320615
742557
174152
372128
990661
853281
96033
423895
785767
270422
975417
485649
322081
371398
977414
410763
91147
339093
956263
6039
935904
758249
891647
128529
430158
133007
940375
320956
128553
80177
67306
592605
354336
956538
951782
317947
416338
270422
656394
354769
980891
694152
920922
631068
102747
102760
598778
156376
895339
717957
700035
734805
893534
701955
252859
780249
596804
751281
19326
739029
297434
172671
123581
14930
333578
690021
667002
404332
336441
615513
544892
88358
710496
149779
751281
476717
264669
101258
204942
48517
167378
373677
55385
66472
630431
689140
105790
993202
584232
586804
25128
399852
752627
662557
503774
336046
837904
993681
104482
591251
153187
490375
305632
755008
893009
574038
677805
340312
159659
935623
345661
887962
86368
634470
930220
728977
891267
167378
230686
915263
818057
925299
715642
195306
361142
851558
464470
618296
991528
97897
333528
834841
117580
99762
144079
317713
326762
977414
211070
955885
508964
664764
311332
306139
506680
468825
916731
47779
200642
42797
534324
316074
859034
281568
45886
98579
607622
460548
421002
856276
931104
397131
796156
880048
111423
989947
876914
682419
466920
133077
478010
249094
471138
980771
368786
796989
711803
557445
61923
694152
519651
121613
128298
355210
787682
561035
340365
490010
269611
286120
370362
893362
711225
398950
891267
464648
934102
504159
786565
851470
68946
630100
404715
836976
829722
702316
422742
336453
774389
774941
651296
44210
872891
118828
257433
790264
17816
423978
132453
737470
640018
110467
302136
869297
474290
544551
574891
325350
628350
589483
288686
788168
118433
403187
170707
370794
988422
485203
320956
916156
224023
306910
741912
366286
366108
960251
752355
694150
294225
322081
849785
291351
516250
204942
970473
977936
475625
904606
394515
818573
131219
92733
181976
159659
274366
895341
295611
636788
940064
692707
840934
124086
892143
230686
597751
172948
117513
772422
968022
623456
920922
195136
298078
152619
131660
896087
78366
690146
114227
591484
580238
274699
779113
908712
608821
417062
993681
698172
939440
46345
544889
622513
192222
932986
174576
400231
742186
419863
631068
717463
343262
471138
764680
125016
468408
265654
658785
630646
163204
322081
652286
919530
840487
511329
410763
199967
829396
634277
894354
892915
841249
654578
298557
170765
666109
600010
824998
41575
372878
904606
873095
183192
12142
39955
206084
98579
442372
927633
605838
654518
84673
512879
506680
848285
753442
738721
612055
53597
253871
641364
362586
521389
672105
435791
717043
360792
891504
586030
301348
94495
728561
142823
525946
781052
690037
642912
151239
722035
695261
754095
158032
57403
516061
646505
88447
9178
301281
579238
128529
689898
414965
711485
754420
194502
647176
628830
205422
910658
866952
819885
863653
791277
869297
727149
518148
800089
851544
634488
891793
536734
861450
298775
666277
515
283742
456083
48866
840793
432798
669974
518745
518870
651296
907419
738721
962419
26390
29657
792723
677061
230691
354964
366108
672358
39366
389579
397949
812307
585928
342140
727255
361250
486645
704991
497285
697991
189014
571422
923721
249094
692523
525461
813627
710967
605841
343262
758760
853281
302091
3035
779951
299219
574878
1573
693289
737398
118828
101794
279602
877213
102760
321840
902436
975278
376454
546733
517246
310691
292867
700035
607656
365162
561816
726568
134961
411026
435831
756675
630646
580238
827403
653819
382475
394151
96810
504159
517349
117513
439094
118828
252696
374835
708378
781788
254710
736134
174270
361998
610752
714786
608821
426251
418344
280268
129574
304292
591251
408514
311595
80177
361250
849255
423870
177230
678983
874778
93832
204573
554071
71979
971561
550223
585067
36172
505612
975648
692707
311595
995704
274012
999930
51322
52383
898830
716070
839273
866399
926816
702316
584507
29388
789206
155406
644170
425236
330152
829396
820442
866399
893362
713039
493668
744199
301281
64365
665001
474256
967529
416338
61960
559387
179260
875672
597056
423895
468613
815848
504159
585805
732514
468618
552162
527847
686343
291745
177428
648162
378854
771997
488280
20906
503541
953376
720179
435472
803740
495865
454049
559795
159986
573005
841166
577430
705710
934949
71149
254710
654025
862616
985390
237046
411951
955131
204539
650429
19191
299219
600775
594806
640162
19268
14930
973126
62
771533
704991
628978
360792
749721
373677
162492
844492
837686
560415
817530
956284
896080
864650
591251
525682
362798
652286
544892
503904
663264
784078
178
754958
707759
623456
965425
877943
717043
168722
173484
771533
32077
891793
189644
612477
915831
710981
873907
423573
324707
235176
718931
430704
71979
137097
131547
968939
829886
610993
624013
777186
240960
321191
415749
686463
308766
683389
574821
711258
285532
516474
206084
511218
76698
381817
892115
630732
41196
856669
919674
933624
71390
86585
152420
417207
917176
21799
642209
369316
274012
182509
496898
574878
919572
787682
34122
915263
388030
67306
229317
34122
402841
757309
350685
362144
486049
553485
396173
543238
103995
891504
604134
342734
682094
248321
697991
869489
834484
115847
311595
82024
362987
849937
9178
983378
956964
390557
611288
407151
369316
581938
61960
116019
447673
860608
982795
403034
397131
2800
5057
88355
486391
922714
424170
591913
886388
679578
549565
389579
394515
827814
429935
638849
707979
787771
310983
628461
320453
746532
845660
103995
34385
881387
910645
145270
100214
988234
549996
403543
936090
693289
488210
648816
60389
278206
164524
40824
583545
171173
22076
298775
86993
885782
659668
647591
552162
511495
547139
465398
256633
451436
142823
607940
143857
752220
801052
310574
304850
679578
468825
845531
693641
102760
893298
728749
543786
437939
971561
837686
689140
306139
845226
27052
508993
989127
144079
681094
586627
377168
388919
796234
901307
942150
22764
610752
838845
830267
83095
866399
899560
634596
722262
336341
648915
779016
803352
421426
492378
162025
57028
973947
715756
377729
131547
594291
147099
905943
574878
254204
44647
564873
654328
409078
538409
728044
349192
431878
829396
752627
910370
353564
815524
137097
504642
262547
493317
945362
232464
485351
533642
48542
285549
96033
123666
453386
965344
241957
238315
129521
628440
92416
568134
211539
946686
926649
578945
144472
722262
35497
386447
562752
878470
447310
400571
793099
585952
522885
955131
357324
962419
492744
761104
185131
451759
824995
42804
488304
485931
199573
386990
435104
714596
3684
222516
129574
958347
492744
932284
573615
485203
877109
524828
728545
304850
544892
65542
618388
701604
685156
634664
369671
211625
121613
2675
533243
58749
644170
153242
182149
438661
29527
991288
76996
378378
578433
622528
615586
783759
229083
318855
901833
212173
490502
811776
37256
211070
348039
435831
975181
47814
255939
97897
791505
498105
818387
591913
362293
756461
841249
710981
158915
429564
421008
958347
540148
83095
895194
796440
813805
831718
210392
695836
458729
246488
218308
602498
31846
262279
628350
852486
553301
914680
289363
324671
571672
956964
104535
255695
68561
687540
259022
948783
181721
987010
78504
887810
77624
865129
459975
880366
254204
34628
931295
151827
1394
392570
144079
163659
910316
836976
427057
426806
840487
503904
283180
187240
642209
244317
963528
312528
596804
112529
84704
642233
239850
435831
754420
669314
965314
922714
900730
186131
298204
622499
423573
398950
200081
117580
186222
991480
504145
778207
395564
326762
330152
257714
316074
591913
29527
482389
429935
903243
566525
42804
964429
929173
866024
840487
830536
338894
600050
288607
168149
972393
160998
947586
92413
947687
787771
909488
522610
495295
64282
511329
51739
799851
201565
646278
286435
188247
436034
290786
387851
497506
485649
287834
199967
899123
752857
715445
351877
565711
371398
10119
628978
285706
316962
517349
539526
73330
175085
518148
320956
704935
754420
367639
226565
828225
305632
104535
819885
659066
668029
664675
294340
948783
302590
654518
885673
348839
107151
714550
327716
815231
189808
676861
720934
735740
481092
155031
48542
717463
988422
761104
109532
389756
717957
902933
163852
704050
851190
97020
926816
533642
2665
319530
125119
341656
102747
904669
749721
161954
161332
70811
296342
320665
491398
744199
989987
615513
752220
426806
807965
920197
306806
715759
741174
356870
820543
149527
912392
231244
224863
60183
287181
886388
816457
944508
814746
463733
410267
448487
747630
326584
703441
526921
672520
185131
758712
178
793099
522179
215437
113029
305188
721231
462885
595544
874239
318212
88304
203082
795187
777186
805680
910658
391501
98579
60221
979424
169084
4147
390862
893009
329109
206522
680532
222418
10276
518127
845902
276485
795121
351993
931104
897300
709348
828033
301348
567852
90574
799540
999930
261552
838081
656394
371398
378050
656394
971561
782495
328466
274012
160183
877034
755700
507072
928955
426642
617568
171675
209816
869489
598778
506771
407203
32879
474155
430704
303730
163242
684174
72416
610794
468618
543026
664337
749769
329977
104612
26200
350950
123666
676823
268056
129331
94170
705710
828619
662557
568742
859117
891647
587210
154196
4266
554123
816442
982795
987582
762920
136367
904964
934980
879061
742305
509560
601324
803832
80177
486391
40680
520603
864650
795121
878771
243162
29388
21938
120702
413584
562668
945528
651296
742180
111699
786565
780821
465725
694678
686343
427057
34705
525573
178
544555
873095
612026
26408
147431
447673
153187
774941
803670
227228
283109
916480
928487
574974
937614
381940
504145
947341
334073
901421
553301
326762
509655
586030
32879
779117
308307
202224
101258
277675
887918
595434
365898
784002
864650
725403
496898
600775
497285
849453
694678
602092
353457
944641
693641
206957
281796
183213
553183
660062
757309
796234
19268
201533
605841
972930
153075
78366
797367
456797
607656
996309
499333
711258
560415
715906
133026
254360
601324
17816
574572
350943
366692
188247
947586
869546
466475
934648
575895
253006
90087
362660
499323
509497
128495
940934
677664
663990
69092
478010
838081
840623
388406
209816
92413
905248
651911
937614
979826
311595
280268
621284
964175
476905
965425
690273
754928
158993
712413
144844
866320
551253
41696
363656
695480
256197
678975
952411
201046
694150
671734
429887
204573
514019
989508
736180
435831
438717
565567
815822
395564
171927
372878
999801
144732
454059
777186
889483
186222
970167
722295
284891
878445
630397
641364
35380
461965
636670
479255
684174
97897
394432
846982
523537
117513
928124
929446
212216
550390
704991
752832
369316
665845
955244
818057
140869
781052
100040
719748
904104
447919
209988
492635
965320
580554
278387
506680
947687
438661
77931
403917
826746
133077
158915
511138
975353
112959
74675
481202
799851
123223
37875
568264
194716
211070
999930
584954
286682
711258
540465
967119
270596
83282
44866
957350
859469
315782
2055
856901
341915
846982
878445
382475
92944
729701
305540
901421
339093
223661
701702
503774
923211
570782
544892
553792
284906
30353
190133
281997
447160
433291
326036
670281
120090
973126
910679
931173
556663
728412
252246
170289
576624
365477
341032
479515
593774
495600
509511
302590
215731
26145
530757
423978
93736
433291
881439
692944
627196
250824
475228
300747
329977
264890
557042
740283
567852
489541
90911
244317
283742
300398
508437
411824
662557
662557
621812
366574
346406
382247
717463
630618
572463
970167
462068
129574
982489
394658
778877
939936
132421
230933
944176
620236
884577
77986
914002
775344
1212
508964
461503
633354
336046
103703
828158
337780
799851
895194
322081
60389
578433
690736
847104
144079
378152
708278
48133
199237
932284
670060
873907
904669
740960
43536
717506
927494
134115
663990
495060
151827
442784
868749
955244
210392
394510
498654
628877
776062
520999
944525
521389
701604
110246
518745
664874
630618
689898
538122
818876
503910
753442
917176
584332
85935
398163
384630
600930
243628
873095
492744
889339
44647
526637
576257
894707
642999
840487
647502
681512
685565
194716
878445
67682
721730
779494
579868
796156
886388
144732
306806
308712
125016
219013
526637
80567
587725
354190
168745
252859
61665
187383
343104
896509
71979
280268
792988
509560
914002
811276
760286
538820
974433
221434
412417
824998
636670
736948
121727
89427
133077
129640
598993
488280
12072
363315
159986
634157
238063
966997
454059
216147
168640
437980
580106
688905
86993
707538
590371
696971
851507
817530
901094
597056
863476
262279
532477
764091
366692
246763
905368
655164
678975
83401
844613
200623
336453
291351
72350
291238
910344
711258
251961
677862
880680
937944
36219
343418
213844
46768
476857
113464
474187
39955
136367
587011
795792
675827
908712
732514
45886
26390
949979
64210
636440
354935
676826
484107
66518
180723
889339
822115
486391
833405
884895
411026
160588
852342
549565
525947
155986
958937
778374
803898
163231
297455
382618
540220
60126
600930
822211
945786
371398
593774
621924
609573
574974
62907
561495
715642
412417
36312
173413
182502
44210
504984
677382
415705
302310
628978
521389
939936
223984
491398
294015
36172
41380
517246
352222
270596
266476
254360
22764
661752
269611
602234
566525
557445
45886
180873
822211
418477
303412
215437
191784
636440
999801
220946
336320
361067
850137
22095
520831
595434
518870
444521
537491
689020
413594
766110
739498
809131
728561
501678
949724
249742
591913
296161
942440
328651
747630
495600
668615
77460
800560
521646
953376
928955
692944
282070
830267
223903
979424
423978
832921
540220
988044
624908
972393
226554
325777
243810
164475
153187
151239
453386
484570
895200
622499
923211
285520
699153
54637
432818
502080
856413
809567
415800
101794
658963
900021
114120
36971
444918
967832
340504
224584
647502
83282
951778
651737
441467
762065
923742
894116
959780
593500
423978
951782
370362
243413
940375
618780
561792
454049
890709
707938
374835
621812
336570
848405
108727
887962
390862
890932
93736
565438
375238
739029
985820
195718
333713
881621
832324
249547
78195
224584
667290
624612
695480
714954
260170
967119
753903
396851
510847
48542
739972
41380
24352
983378
221924
277561
947875
942440
113541
589483
719278
22764
62334
598150
437876
753442
18865
11018
175085
601324
130445
206957
988814
909224
913802
793706
412827
579168
625357
68561
263708
841249
910645
662360
98417
1212
289823
323934
567852
755212
940303
116019
34122
192362
947709
587210
989947
53597
747772
882787
434497
780821
512999
883678
853391
813316
874848
514498
392449
223903
641697
627805
425236
271275
890709
822088
540898
743855
48857
753695
499333
161215
493348
98359
891990
317594
68841
273385
543074
319530
976756
760286
363099
86609
406203
822093
41382
211070
610331
349192
727255
951233
549606
414395
296161
960421
288986
499333
653819
563461
735724
221157
22095
160935
862199
354336
415067
109532
904606
217779
203082
22826
311595
342337
779016
536734
461151
861450
170431
61960
261552
816639
716167
851452
397131
717463
82416
631567
898051
877943
455158
891511
384674
152619
71631
355210
752627
709873
920400
11699
815231
463482
765955
140077
373653
476905
803832
486274
934663
303412
153780
918295
953762
974900
498105
631567
937555
924766
439322
347385
630646
731954
98850
288686
15927
793706
303175
961227
19227
82692
55424
340446
15021
321977
304526
849055
142592
808282
570207
371077
477965
217594
95978
605371
14836
620711
796322
611679
81928
894218
918662
491369
52798
303179
103939
147489
278206
128529
521646
924522
589449
869291
594360
417062
757234
439266
254110
169542
679077
522610
143760
912357
798190
257433
804328
378641
93026
525573
847388
579238
311421
86101
632335
625607
203541
397274
343940
593774
960312
285532
670281
388406
370727
517349
721180
68821
629771
159986
180462
280268
68685
115847
378579
894354
898492
920922
94495
779951
217498
266615
776971
122807
678859
147118
766110
802504
283747
724154
808137
194178
957350
115726
348648
127215
439655
93960
747630
371057
284906
808879
915038
150497
614613
721321
826555
960251
427205
979620
549565
19185
429005
219297
66643
371077
356870
69699
706794
280400
533243
771533
861834
424007
162556
238063
181978
309000
522179
301208
353636
583029
934949
251961
834540
403624
663208
55717
805271
574878
479827
572805
454613
779775
958347
802773
909488
266706
504232
124873
117077
620342
905499
695836
340291
701604
848287
646382
615911
301348
62036
891990
560626
938377
108087
578796
492635
252008
929289
808009
88032
463277
229456
388376
400178
809567
391494
608821
533628
189808
365477
954568
48751
188247
827814
328162
648162
866952
572198
40118
305188
194916
822564
747630
294015
649691
793099
447160
612055
851452
580238
537491
476027
863476
735536
729811
713039
155105
728738
954176
36771
62925
834793
321840
209988
309000
716911
747790
108099
622422
394151
86993
556276
813805
377769
439364
504642
230363
142118
224863
906860
648816
592498
580924
138081
560626
392449
810946
674263
815848
549430
450307
201565
722617
839206
674981
234040
480309
594632
354336
570001
989947
172411
536408
675827
647176
554071
830536
976500
32794
360792
652769
129331
48857
200652
135194
905368
944641
368171
497506
749721
873132
94789
730215
973126
567852
627196
789261
510977
862232
140990
87635
967119
396326
834471
662725
979620
378152
341915
255068
252246
572100
29527
824998
362293
380653
759498
912357
665958
510773
152037
33090
560891
780620
100214
580220
392570
872915
268743
754095
480309
103593
474256
224023
519372
115198
851340
447712
659932
633406
677061
382289
700096
831446
894791
585571
669974
415534
845902
799280
260249
190412
476236
131722
956538
432152
902933
28661
377042
806572
819415
224369
351476
250824
570763
659668
323770
397975
252647
589550
370794
80213
740568
39570
550127
790871
988422
845902
37875
696858
920922
903243
17212
786875
867434
517349
856249
83527
777528
701837
71390
990852
466022
479107
573615
549606
900566
403034
185418
964429
759744
385768
969564
95622
608
811633
607622
830962
121569
321191
260206
618780
14102
25732
387262
771997
226554
382204
898830
301208
332110
660807
634902
274366
801652
732873
785875
892115
34753
276485
812089
630646
434085
125836
237580
175085
471115
441347
425421
907717
926649
679578
637319
924766
940064
540351
201407
71149
955483
680541
51664
891504
848405
49170
917108
320768
887664
286045
800117
985522
396326
357423
245383
789206
386252
504984
804676
828033
840623
264669
634583
828927
648915
251905
276485
424142
71390
772627
129326
803352
109327
761170
373601
51322
261006
297762
894116
798365
734972
353451
424170
380653
105790
225832
754958
758466
76107
471925
635455
44866
580723
515597
126543
998180
108802
499489
970167
624013
897300
916731
206007
578945
704344
844492
305221
539517
614453
340312
646409
947687
147071
113029
572805
593798
300720
577447
82509
813627
551475
666277
778779
958716
403543
795121
995704
180462
722035
893298
394510
476667
92386
341210
956964
287461
192679
118643
155933
994531
934949
376982
823791
587304
433291
587766
103703
57403
831137
261132
988882
633406
106756
310574
535373
905057
106964
847695
69092
234511
104482
641364
675065
411951
587201
572100
841351
359629
766462
543183
912363
893362
407151
975417
629440
366574
881228
195136
750852
281016
148796
839160
206975
481710
261608
216215
278206
832921
510352
118643
848524
403457
522729
281492
283742
8469
317976
27052
172948
44210
870995
476857
216551
647721
515257
199237
127896
962419
447035
850622
538122
509755
357324
702374
206084
458313
823606
737470
851764
421624
429935
189660
779494
375385
4002
530428
935481
775344
190921
204573
335182
895335
282070
25732
334388
205342
346406
824649
572805
938666
568540
113464
644899
773980
367291
572805
956964
884535
952000
447573
652279
352378
578796
351546
365461
153075
513075
830567
151373
41380
2055
776971
954063
597056
82509
994662
585952
1651
455117
350950
959343
199237
622528
447897
146707
690974
723935
630732
538820
32756
651031
511903
533243
155105
643910
297434
317976
305221
809218
909773
20433
40838
886624
553183
575895
441976
868803
901833
61923
442372
200652
886624
383690
32794
368858
896358
200718
37256
450940
298078
355210
868749
313504
135625
907419
131751
206084
907887
634470
168745
623456
625969
57403
886624
411937
234511
257714
369031
696199
888552
286682
899255
74532
902586
51658
879061
987232
458352
758672
271275
153075
672520
342638
752755
163242
956538
851544
566525
627147
175396
853281
492635
799280
868819
877213
311421
287101
15927
942958
131239
443523
834553
495865
514498
646078
108670
526666
529298
431532
870170
125353
554071
783191
147071
663051
308307
310321
942958
723450
498058
178609
271926
175851
260407
956021
349831
867973
78195
466765
168780
198896
291238
192222
396326
498654
378854
124873
287220
993253
672105
68841
434497
916591
275452
845903
801564
932253
319610
964854
327139
73353
834553
652769
877943
407268
628033
403543
752304
943636
568742
964429
239665
403484
419179
545268
728561
96810
509497
481710
442789
285706
959457
510963
298164
916391
774340
95229
236646
921345
207999
407203
607741
209345
707538
316270
70811
849937
895341
108132
667774
994531
611766
654545
693464
293740
876914
824692
447327
352222
329143
963181
907850
213665
74675
244317
849055
245973
330919
222893
14075
264669
349381
245356
883450
143115
690974
677506
619334
398171
18477
973253
874994
502431
659632
319610
115431
543284
528101
46345
965344
82124
597056
561909
333528
190412
91535
282923
124992
3537
991287
282858
862232
517385
185131
182509
659060
501678
222152
799851
453851
64365
294015
739693
951457
784078
877034
711258
890022
264679
799634
964175
699361
741174
915455
205291
506460
999930
282858
232691
454099
423978
507178
960888
88304
815847
569013
503262
331399
748918
589449
206228
824691
86585
714954
953762
655709
730734
625357
237580
475057
164524
220984
715756
499416
776094
46210
317109
541473
254883
552968
74783
929622
659632
280256
612026
498105
832784
544892
699722
390670
377042
492486
596724
776971
868749
974750
179512
878445
44294
823825
370362
151827
736364
926130
66961
767981
389033
441347
951617
350950
475057
24352
129640
901307
809661
182609
852623
371972
836654
2800
955215
42673
50381
230147
752449
198702
459707
23630
143760
102384
713767
544738
846388
873129
599522
650018
416627
228836
181978
117513
236419
357021
894354
417970
566486
758837
905591
272697
947687
902275
145270
189659
821161
704935
429887
207344
760469
557926
932253
245737
759458
488210
682075
850622
759458
490560
757838
170431
956538
493514
340291
482389
448846
821010
830694
955483
480309
767410
785767
896358
593798
49380
411951
787899
362293
515597
15021
218730
622624
634596
886906
16821
432152
109327
98067
246233
626185
284666
668911
543786
885782
964175
841166
1
795958
583985
908286
647591
82357
291238
275721
459975
541689
682094
957974
536405
390757
636670
250824
766110
518127
964216
517717
759400
701520
184888
115592
516044
64937
834640
528219
894791
869489
448179
903417
812307
504854
65475
501549
630618
519651
798255
287220
931231
71631
692523
459167
835011
322081
403917
873015
511218
209470
957974
411712
808275
255069
713300
385888
604134
274227
572605
691908
369316
753662
247212
69375
225713
968790
479772
453320
272850
908074
587207
322031
224046
130052
590048
952566
755212
642409
662521
19747
628440
964854
573615
254294
833491
624612
652769
185445
192362
386743
868803
524825
896533
993284
779775
277456
528256
282330
974267
824032
916731
993202
220946
891793
463733
788354
51455
704991
151359
315780
801721
365477
795187
535773
568227
417062
86099
36768
708780
108951
706005
234044
695836
135459
311332
152619
371297
7419
392449
147118
182324
641918
699361
691908
680325
225959
856558
556338
305221
820543
839206
437140
719879
838263
568742
512666
90782
325298
735740
397949
225869
161332
944525
643485
400828
990983
847695
453952
289569
632630
118828
890932
269306
899123
436442
660208
173545
838263
79316
692328
261420
674054
191774
715880
86099
759498
552577
552162
904669
76018
674212
55385
646002
163633
479724
591515
52853
59127
600981
911375
931173
722819
876958
232464
14930
574821
380467
605315
97338
421088
205263
954438
673426
225959
365461
704935
728412
861317
978652
954438
784078
466475
631328
82692
51958
118643
923742
245631
485290
151293
830694
988814
896450
865168
592605
596400
655667
930000
448366
632630
910391
311905
3582
37738
229083
631954
66692
707938
597056
155031
367907
10901
586084
973126
607438
94427
677985
495060
609573
624013
468613
694152
68198
953496
540023
95978
820928
676770
955885
412417
947803
144534
71631
290588
92423
848287
533313
207609
286004
211907
280651
397131
600333
84697
431968
788220
2055
924272
497684
772861
164304
145270
125016
355488
957974
446534
840099
756232
268440
342761
475784
779775
19326
473886
728977
992365
479827
277561
232311
769786
538420
883678
107926
717043
808029
620908
784598
397588
438384
737398
442577
640162
78366
579130
980908
433873
104612
134961
227311
946417
498105
787771
310574
578928
677664
824691
843267
179260
495060
692707
294931
583545
907235
591629
563652
873132
661752
217271
798255
859627
432798
595711
182375
71979
345181
264124
851808
719534
71580
950339
620740
791505
92416
732549
29527
403543
463799
875963
389425
92944
212271
28180
856558
825924
894707
751778
102200
219727
441976
160588
596400
794345
23526
627656
656181
662068
742355
531534
19227
293306
400895
647721
708469
894116
876475
891219
384320
331399
536734
552965
345936
788354
707938
17588
545268
592379
961725
709527
894218
386669
649691
115198
259127
400760
261420
96033
584332
183192
547329
115837
220946
897983
566444
677988
553792
108132
591721
668911
815627
579034
25758
931173
341641
2508
990661
970846
413412
229317
526666
711485
715906
453219
225481
14535
238315
383690
194716
434085
202224
919674
402841
780663
461474
753903
142445
125119
205291
445600
958914
207344
828613
748061
435472
925841
58716
469056
545433
967832
730991
448892
662916
124086
254710
905954
634526
791599
15059
556550
752220
134745
896533
648262
945878
152260
185176
617553
894116
607656
892115
421002
459707
108670
755783
461512
358603
222893
247580
949172
904613
758466
763039
77406
245356
192
954688
207503
864971
600775
788354
388709
400828
50381
761010
242438
260450
662068
724519
484570
355042
823663
853281
276381
59170
201777
630586
382618
763376
426701
342140
412417
198019
396851
192801
40239
831446
630431
41382
236600
378820
484245
122807
276585
424142
533835
670950
399271
939440
62
634470
719268
977936
348839
198702
69329
163923
309014
650429
588798
707938
641833
166069
937998
243584
163242
282403
280400
615588
808462
864971
869546
713300
974555
133693
120998
946337
764680
281492
520999
220194
885673
585649
136667
351877
915918
883150
30076
974555
884535
700522
619907
251961
193214
115837
674212
887978
269928
128986
189659
29657
321029
760892
15148
413594
780932
132453
217498
519372
162556
633616
300006
437913
196643
836848
543786
203762
722617
578424
627707
735724
750693
155162
151755
434455
907264
883150
10256
869721
375372
596068
7725
680491
92423
251022
87635
675185
120938
704935
129196
976471
682261
71631
799597
852880
865114
961371
627489
562668
190852
318212
100690
860189
289530
800117
420896
964216
121404
868264
650535
925367
535773
155031
224511
65785
548260
994367
272893
159585
382289
882506
313300
113453
753822
651031
470869
957350
464417
12819
100796
992365
553485
940303
113464
942958
436906
226554
917433
476667
295175
600050
403457
112529
580723
849255
185445
367639
207999
384397
91138
624973
933045
880048
564115
31846
337921
144628
615369
464573
595866
201590
278387
388376
567810
3744
886906
649962
45482
669986
876475
326584
990031
583474
701604
540642
263708
488279
499585
728663
484245
264
652286
251052
135841
222418
913994
305632
553183
794131
727580
48751
282923
789166
804694
420190
286045
56662
332896
525946
917176
486274
175439
865846
848715
255069
85294
654830
497770
61665
243628
303412
525461
367742
444918
862486
730991
295611
204573
559403
655709
562752
132687
529248
390862
11446
86993
815298
232037
895982
882178
140439
725403
728044
682075
60183
475057
437913
493317
809871
760170
878470
659066
88358
778158
254110
362293
733563
421002
625786
135131
136805
514978
53754
201590
659066
232053
435739
600048
471115
816092
825510
317109
490993
695437
923721
974900
833632
933251
853445
987375
6239
330963
798296
584232
585996
176825
538191
980891
527179
301422
320768
66475
850654
961227
439266
487159
546694
851558
308766
790874
36372
40824
48771
481428
805271
201046
140406
435739
479724
680548
363656
632335
254875
367291
284906
436783
735740
648915
193089
742536
421624
362002
561739
760187
361998
501536
260450
51664
228624
204507
509560
68185
689140
488210
659539
691564
860859
158788
303730
254710
997406
619914
236502
361928
410577
652769
854075
130052
864331
369981
609448
60557
403969
431474
153870
508964
15927
328651
317064
860189
830881
446863
654578
772627
837686
933931
611766
164682
619660
213044
267901
881820
187936
445176
786875
663988
837328
61665
166069
897533
295845
894301
832146
916203
520096
814241
82357
294931
693656
294576
288127
92704
567072
835497
882361
163659
146118
105066
700084
315782
661373
887962
696266
787682
804676
104448
476268
344844
264039
695739
574998
341915
317594
34628
578632
751488
756051
711258
564813
843805
998180
630397
682645
832140
436906
690273
259187
376454
52115
669314
816457
803832
80933
404296
954688
856754
181206
362586
966253
789206
2525
850902
691891
664088
274366
779775
896052
799851
761170
148213
956659
230933
829514
386743
855249
923577
386990
488189
899119
585318
912536
725129
990031
876914
66314
504232
134099
181206
788220
26200
83282
25128
397131
509497
92008
15963
580220
3362
162839
414197
678859
701531
18219
204573
142823
960180
902735
796470
436442
234511
409078
443735
541905
837877
618134
28572
864971
843450
481351
426701
963842
259320
209678
677985
543183
870170
443615
144020
56860
892143
641833
292206
978652
936425
271275
934648
80177
714786
30353
740283
794131
706411
387894
427612
135131
454870
234511
776092
134110
426806
153242
360392
465633
252008
132687
115431
711335
670281
28415
126120
430080
177683
711438
584332
917008
230363
741824
884254
20267
862630
551076
510773
219013
191851
413255
511495
728749
108727
797091
306104
437459
39728
245467
66862
896087
328224
379666
365037
653819
255939
952566
238315
76698
481152
534555
108099
999413
581298
108099
610084
1660
4542
416822
468618
627196
580106
659836
464581
915208
120702
589070
236646
615721
387894
515475
145549
495060
628350
209461
3537
984099
647010
525946
393664
802632
639813
216215
503262
196643
413309
772627
369316
194249
821010
488950
187240
375372
406203
663264
288607
747630
761010
933876
727906
785875
431597
632335
82692
853561
568013
848524
237046
442577
929173
669454
434085
750103
873129
915430
131660
232623
748863
621111
162551
724519
321029
397949
740283
386447
895335
490747
131547
498105
828613
732222
551475
48609
924912
740376
441297
922799
341725
963842
979620
656394
328618
49525
829021
77624
855249
386295
630618
747320
931156
438801
549748
391494
461965
156020
476236
580107
205603
300811
503107
792715
262488
553183
447327
293306
656145
755421
48857
43495
709290
990031
929980
665958
199822
201089
65424
187240
249298
801052
18504
522729
454213
856413
852960
820543
493479
909296
193214
324480
384320
302297
315835
850137
841166
894961
900566
563746
62036
109158
728977
614613
965344
684331
695395
825924
718739
937458
492635
806863
836654
901469
178449
445905
153242
477362
904964
208532
911418
814623
936518
692328
764911
484567
644170
44647
142823
695480
474290
272893
682419
435515
500178
743733
311617
93918
152691
569176
737960
578789
356647
767410
125002
183991
3654
542129
340016
663192
733563
799851
47839
560762
573683
890624
852342
860140
217354
845581
966741
447310
321648
721354
87814
815627
868348
219295
549782
39608
298164
939699
646278
454870
124872
217594
10779
962489
381486
956284
863722
387407
224953
748012
442823
960820
279436
811193
696266
968022
615513
904433
79978
362987
384674
453320
78504
458352
951617
529800
329977
804328
557926
678859
967408
411951
591240
919674
370727
260249
833684
167738
641697
466664
847388
281634
260170
420916
339093
614601
533642
508593
316374
423584
751778
86585
584918
580924
931257
289412
306806
118609
150024
162039
774602
742180
776738
243413
940303
162551
720934
46345
375772
272347
152037
538191
958937
605838
506390
164753
18219
875672
479724
752449
639813
264854
453959
866320
619334
389693
883450
550127
3744
722932
310357
281950
445905
497285
201095
809218
944525
960835
194716
436034
792444
816233
670980
471115
674355
521436
231614
800089
544551
875672
190763
353451
963938
142445
227686
506191
895099
310691
959343
822564
147504
978191
971742
1759
186329
609013
189499
994367
265056
209470
349192
814106
330963
933781
203556
313504
856438
613661
605017
647010
957974
800117
111992
637395
583545
822115
135194
37256
943066
520603
960089
197713
895335
316074
641364
456797
403034
14175
798048
681512
203762
48932
230147
37887
175085
135576
869721
252647
457018
697937
773980
712726
998180
477712
467307
755212
10779
414395
980041
191514
264854
892885
416822
391086
86735
163633
963377
3452
887918
286543
967167
241651
245588
350950
898538
154588
439364
432152
644899
377168
522789
574572
128553
795187
792715
86609
147817
582725
869291
243162
923211
107903
957974
111359
982893
670281
68198
944508
661834
923211
10990
126209
666567
758712
704050
363228
638276
756675
135841
264124
514944
353457
671734
866861
133693
994145
791277
236563
631068
719748
785875
882178
508437
292202
511080
851558
981627
902913
12846
20026
151582
383548
311617
450785
40838
696199
216215
281568
29241
624908
14075
599522
539930
490560
966875
10615
179260
342734
661752
901307
932986
701281
4468
149030
92008
350133
78195
632630
81516
956964
593200
441976
899736
283865
723935
759498
310983
911726
720179
125002
801196
438762
119749
767826
219297
302782
93963
197271
230933
800117
172356
454534
739029
838786
891504
212176
95622
302198
293165
60183
844053
358214
567354
939288
750623
978191
414422
363381
662068
851808
518127
802358
447310
673730
327139
779251
774319
901307
146737
80213
870680
850137
992365
560762
131751
979689
635322
341763
175439
34122
559782
153870
570311
873449
937944
150024
112143
101794
633354
681292
509755
28180
568262
976341
503753
869489
298204
346523
277243
290028
113325
47779
183991
627904
443976
907191
123223
595544
350943
749721
72350
346138
554123
877034
984766
454049
884254
346523
86585
298538
149779
267148
803740
756837
591845
580956
620908
911375
752449
180577
750852
626706
659668
401516
713089
622624
908311
788354
206678
736329
882298
630908
144628
652280
306531
576624
696216
882298
80567
878771
698637
245356
934980
489518
521389
189659
786809
453219
316859
184444
460884
545522
358646
60126
933624
753442
425421
46063
936425
531259
201590
298555
841351
475095
847388
92302
153518
838715
902275
533642
199967
831137
769633
800808
654830
171675
400131
309000
46768
134115
198299
988882
829514
475771
198702
752627
6668
752627
300195
503222
752450
803832
895339
473373
885680
419973
859112
816092
389579
415749
953762
543813
929980
686423
836976
905057
391501
66692
982018
630100
340446
563615
693289
52798
941234
936425
526314
142946
193089
332896
87509
154434
535773
169150
49380
414197
476268
766779
693917
404330
102833
990435
818057
726786
606622
725955
877586
845801
891331
564851
899560
437459
228680
356436
591427
914680
686224
598968
377042
251307
792502
300398
327952
136667
142262
720179
609136
348233
527488
190921
955244
929280
518846
539770
447712
388376
241835
914822
99883
942150
41380
552577
121156
477987
782210
352222
907438
395263
719278
415800
256304
184302
389425
609136
439266
443477
904071
449304
853391
818755
466048
615304
897645
646576
384320
787972
943288
632069
255068
541905
467286
887810
381027
270596
44906
704574
345743
552757
125238
987891
256891
538122
110246
33962
458420
897398
271275
809218
785578
510773
990709
847695
194831
142953
5308
6038
512671
707538
476717
226871
41196
602830
876386
160183
88304
399271
788168
958916
911418
194502
369568
863977
999930
608072
568227
654545
161332
670950
713767
111021
270016
628877
86585
58246
985820
911926
219295
331399
910722
738045
884147
84992
98359
22795
630732
939936
641833
645314
358214
533835
878771
809871
896450
761978
280191
655032
431330
719693
850625
809871
419724
571792
744199
531259
631832
931173
818755
673166
583029
403034
391501
732597
60515
311595
807458
420460
541689
82357
59644
637544
599187
628877
722480
592940
822115
927176
11904
636533
249120
329341
510977
246233
106446
459053
321977
331732
960492
635500
17588
634367
546385
622000
621924
728714
163231
395967
460056
790258
785430
64282
944151
899780
365291
376129
602264
578928
266795
470140
915918
422234
154196
33320
939044
965175
560415
527488
956258
10901
315468
992060
455825
204240
384320
771533
954063
916183
651737
799851
92259
14535
461512
42804
777296
645534
916745
946238
920197
178
882486
426300
888795
384725
686772
112339
578796
333458
783556
461202
461965
351993
224023
284906
286056
435791
828729
627196
187997
302136
231436
978067
801652
618780
367907
505082
890629
499489
541473
748918
481092
526544
104744
760444
134110
385519
512879
746532
96654
269306
2844
875963
713089
798190
849670
9685
131848
682751
415254
159986
521436
671437
642463
843450
771227
234730
37738
488304
391682
236566
207909
415067
715880
718547
565780
843461
49964
586627
232464
335121
614453
378050
517491
311332
973947
791740
130329
560473
784849
948115
466861
765955
26390
765955
296161
852925
574998
21736
580107
510036
415979
771339
100371
150089
514498
880161
560473
572705
702309
965379
361228
39366
446388
627707
375286
607885
441297
337921
958347
950716
778779
203556
227963
223468
579130
460139
344688
622499
534033
978191
934883
869291
251961
143046
126120
279355
759744
224584
216215
329109
822564
143780
902933
363221
499489
568419
824426
605767
416775
85294
447404
779117
511080
661426
776738
498654
24005
661142
468613
243413
712726
324847
833622
284666
573252
438536
192801
511455
545747
367825
281635
637186
392011
257823
398206
620740
136667
934904
717633
912357
789748
456830
906195
264669
443976
98041
796989
700035
317594
644899
333528
456321
215229
14836
988894
414634
124313
810210
400961
451701
140180
910722
58749
395977
715906
845269
157197
640402
712627
78366
121156
933931
155933
396561
180884
277036
307560
106990
75060
783541
599187
505701
724519
505612
414395
660644
984766
927176
28720
662645
526160
572962
823307
134474
750552
145855
101701
458729
131219
430158
795990
100145
358169
389282
962871
665985
381940
499416
486512
59127
570880
22764
418390
347637
845531
280256
600930
411712
15963
311947
744225
781917
241957
205107
855836
343940
246444
120938
758780
882361
314419
908422
967855
319018
608129
899932
899119
659145
638580
987375
660658
491693
742278
293306
814623
447404
933115
417970
158788
458352
732656
805108
79522
841253
662521
891676
167224
971049
489578
917108
609448
927846
263214
461282
99883
756399
567705
551253
121613
459733
21615
884577
70391
917964
512671
892892
997406
718739
243628
730915
382803
536477
975104
16455
430080
677858
562712
15021
928536
965314
722932
772861
863066
10276
339093
886066
159696
331885
709348
492378
350064
203836
921345
637544
897645
451830
298555
88114
206080
403503
877006
407844
370408
543099
851558
947080
39702
627805
433624
513690
713089
863141
934648
28720
962352
637319
924766
420071
844897
728663
125857
417804
367150
896445
732222
86101
235176
42673
24807
96850
539374
313885
954651
917700
108754
809430
357324
456943
502431
816583
499585
872915
742406
163333
399852
274366
744509
817388
764091
552978
704138
970167
790487
162346
246453
874778
861704
317976
370438
738955
485903
323910
774602
688762
486645
725443
907419
415534
557316
961371
852880
194589
240960
207609
518846
40680
985819
278206
274699
358848
611568
494811
839160
484089
446534
773980
416338
670060
710974
972930
336046
326584
620342
108670
772470
927846
466022
728561
60183
384909
489631
249392
730770
247087
751265
456083
988726
721730
988422
475095
953348
832146
454534
267974
667002
585067
51664
759161
231436
958347
298555
933931
979942
654025
584954
142953
283747
867687
777753
111699
466081
240117
454465
930108
471925
713052
283187
100040
331885
910370
864078
678936
992365
838401
547668
109106
239665
434455
193214
525461
359179
4587
46101
45223
379058
491563
493668
734805
720934
896087
953243
576103
680838
924498
570880
250196
232836
570311
634157
635601
566428
910679
908525
301422
163659
813627
556338
817526
783191
719879
869310
736948
881031
522610
744509
86027
904964
909805
658963
286543
48932
572805
929280
587011
393664
896450
809430
692944
816233
754958
270422
164697
873129
404296
916480
364827
372176
859917
974215
354190
16487
721425
934889
634367
583836
349352
265816
246488
539517
540032
57403
504441
405127
92302
217109
670553
680325
480999
665844
255695
316962
4587
918295
379483
144293
175959
545011
882787
860883
423986
698406
530132
918010
680325
987653
744199
624612
179260
289449
153780
717147
1092
350685
512671
175085
670714
366703
943288
767315
959121
273331
825936
714779
94873
426633
135583
129911
102200
443866
46345
438979
587210
339723
307181
799280
138857
61960
230201
1099
326036
880401
732656
969279
192801
418591
539997
985819
424525
902195
75649
805910
585928
180822
375811
621812
232037
859112
410644
184302
39608
777753
572605
406147
573778
790410
485290
492635
615586
510650
656565
363391
529298
426701
6518
646505
564266
427612
622513
323117
889085
709290
71354
975648
415211
378641
662557
783729
741735
567852
970846
801721
523981
901847
421970
879793
851544
701702
663932
70078
673749
899119
283747
115837
495597
747463
520680
255107
820442
518528
66862
763225
427337
154196
866442
873822
550390
27548
149305
354794
768891
67306
106969
871830
77507
904674
623456
990709
856754
20865
816583
262497
315464
82024
6460
605841
188218
974883
557391
807965
278209
384984
406954
495295
967119
461162
853113
604049
970167
803213
223645
525275
421687
816785
912801
965535
307754
888795
905499
111506
119431
180445
877213
744509
902967
257714
723908
822115
738955
186329
343262
970647
834471
516556
410915
353457
640479
665642
630618
461151
21615
179646
709348
758990
739972
134115
86609
738143
999930
561561
560541
799540
701837
523095
504807
177451
186203
714550
612477
777910
788823
887810
608135
543261
587503
405139
818573
201089
191774
865114
447712
280686
837525
253373
946686
985819
993029
10779
384909
367742
493725
112339
277836
899255
757809
515334
872891
845531
437876
441315
596400
99883
343940
862232
676446
874994
779951
82124
529557
413924
464821
163462
865846
13059
793309
945222
751281
673426
451830
715906
656920
445905
574998
479107
253063
559782
254038
761923
659145
218275
184302
511155
567852
10092
640479
827677
400895
904669
279541
504145
340741
832146
78840
977414
367291
686423
317976
530553
317557
316344
971323
884254
148029
46345
655667
896450
865747
22940
23379
822211
250339
52327
38560
407454
61610
607622
717809
717463
550390
624612
871830
683084
92704
851224
344534
414395
67746
543363
498466
289965
591484
617261
351189
14755
65424
950255
79257
857583
797320
561755
968581
491120
698172
585649
429199
180462
643910
882506
309437
245838
817388
563652
450785
28120
444521
457180
597543
447810
385846
525275
576526
526431
829273
315468
891675
873132
934102
123666
51349
18130
103795
520709
442560
462068
729814
635305
726816
384768
942958
188318
303730
868020
354964
346676
824692
346676
939564
425793
413742
374835
275371
707979
88447
26748
512887
342667
34753
672520
845942
999801
674981
879245
530553
400910
728446
497684
520386
122447
92416
800012
520386
795902
215170
904674
24352
175805
674981
988894
28661
993076
104448
980891
236991
97338
27052
438384
745251
52572
552978
489148
366604
271926
484405
744225
78270
339229
605098
729582
182502
342761
617200
535373
195023
766462
288443
378915
766721
754073
8842
276381
275452
884535
702142
157939
999146
584918
251117
949078
890802
427612
567940
451701
431717
108501
987637
928151
770036
666277
486274
940375
162346
716249
320802
583985
720350
922799
279667
79233
912195
908315
433174
960888
503454
569063
965425
386647
718753
904613
722185
863476
368086
294957
165208
386990
652826
991528
934648
881228
697783
192960
611568
687768
851257
442577
92944
733255
41382
750623
316859
252542
902674
83401
133849
351877
627707
708379
77314
254371
660807
102604
521352
528312
538282
380068
777753
954803
837686
1734
27192
807821
622000
465398
819415
6129
927633
186131
802632
572412
319119
80326
383214
18130
616508
135576
894301
593774
254038
896533
636670
795096
666070
45693
732514
635433
707979
659632
14071
249831
432347
205603
701561
698305
1759
217806
113453
577163
51739
277561
72874
159659
484567
706411
637041
201020
210192
40184
330639
511963
856210
840857
791071
296548
950355
725665
35355
730734
350057
626944
671233
521352
655032
859469
684197
336039
883794
473099
386295
327952
684739
370408
102747
470843
914906
947586
90760
916156
404332
945403
297762
618409
501857
375372
954803
474256
322342
654025
247140
282070
22076
840378
848715
928955
589449
901855
247865
800609
543261
21799
247687
956263
503262
125212
498476
558155
732597
925367
881621
302673
330639
563652
377113
115431
456943
69909
37875
479784
927593
497506
395534
2800
845660
740283
708469
809235
533835
82826
973875
869476
333713
642463
958347
402723
454186
832921
551244
977476
375357
795484
46210
710496
518043
371972
919674
659837
641697
899274
62561
791071
8842
861013
629771
635601
894116
221307
671357
710379
359372
290484
523346
409168
904022
711901
123223
25128
607185
116617
205855
58237
888925
134653
229456
392412
458313
371077
543238
236600
393284
160852
347713
911021
284891
564261
412156
764834
698172
520831
403034
933781
958347
829396
322031
416338
111857
923042
366286
874630
513934
812244
643166
292867
823307
73282
917513
395534
381940
52134
147728
905280
673166
333260
894910
523648
341656
942150
885680
198702
324707
516791
404327
86961
620395
255107
757234
657672
78488
74675
120976
993202
37668
289823
838828
695437
620342
509183
818608
789206
187383
582918
838263
390670
86585
141970
647583
706504
363221
504232
34122
401964
511534
224511
399852
14069
64210
499323
917152
188329
653114
858195
44906
453753
948783
485903
837877
301033
498105
178449
147011
395081
265640
758542
961325
224703
570595
784290
953496
667002
174576
493317
117252
975126
471862
575206
305998
577430
87814
353464
540819
275251
812154
504145
104744
356870
750623
874848
267974
829888
486459
64982
587725
84395
880522
721351
683391
116019
62416
598407
431127
362586
213098
750204
230153
294015
853281
720587
175850
766779
31846
860403
955176
861721
326887
571678
449200
541905
629538
341700
330919
973768
337031
24352
223288
944566
338922
938781
365295
642510
653452
461503
499323
135131
137426
860140
889495
301974
669547
460056
493473
700096
675827
35133
369724
474012
450901
979424
887083
306157
348505
17314
844964
761170
712474
658086
730734
994295
755893
595089
102384
359592
283180
228251
565711
597376
955131
513690
328224
178087
279789
342734
90911
411712
866952
766462
517249
969564
438198
620709
829139
61109
579034
288847
250824
320673
212100
574038
82826
430704
786644
534735
850130
495670
373601
703594
118433
242556
635322
549923
321772
635322
988044
49304
716251
650459
891858
765494
838786
863915
49380
368786
149075
970647
593500
243584
218166
967630
320665
737824
184892
742576
829886
52383
237046
684331
723450
416569
844736
475228
560626
217766
740283
464821
86110
366286
517295
779494
27118
387262
626944
439322
189808
241835
391494
212081
361388
751778
979424
564115
403917
68685
58742
669347
923042
859917
898139
571672
420346
801652
917343
919572
603053
906195
755421
164046
42463
890624
610752
382289
884535
982120
455220
1389
354633
170289
666642
277456
135194
563615
657005
767826
153893
420190
4002
224114
132421
122472
796656
136874
596870
892756
397949
629440
670355
281893
722850
721000
791573
481439
366766
180230
153187
177428
42515
837904
711225
129640
795305
254294
789561
861704
511455
872794
657545
377042
845226
938732
45230
26130
686772
753737
129640
66862
375286
707979
939605
869476
329969
594124
320649
33806
753702
36312
347749
928229
414634
140804
557937
260249
721321
975114
444712
408534
427053
568742
103188
279602
201533
291092
529298
198409
18489
783729
21757
493479
947727
852623
907419
729814
245588
399087
888770
878612
708278
131660
638580
755008
15148
939532
611413
971323
725403
423334
600775
680548
691292
674054
695261
79250
743855
298493
996563
550251
570377
453959
540220
98359
952607
441996
795484
541689
707538
540642
90263
804656
806572
49583
46210
22076
88447
594632
150440
516599
727255
994367
334532
289965
814673
315782
413309
657061
1389
32638
166422
66862
980631
800397
264679
808275
821010
931599
660807
802773
44647
923023
559471
390241
512999
652769
441855
570595
174375
827327
171440
956263
542043
42515
19227
568419
340016
225694
143217
572857
271128
655032
89253
190699
824426
455117
830694
456083
736180
644899
477040
94789
935904
660197
146118
152901
652835
767826
203556
570207
641808
856669
879793
851257
530132
152102
383548
865261
248321
517349
909649
888420
617954
507017
681151
70897
720587
967630
478511
459424
194032
814673
166069
422679
591036
212084
444712
925467
94520
779775
83420
175310
918802
852338
661373
373823
180884
237712
226871
122472
402470
568833
966875
549923
513548
31385
737276
189014
358214
48307
218275
307618
668162
748863
294340
845581
966943
726845
279541
794046
611544
512671
234393
349579
133077
321977
696216
122133
554719
979826
452069
191774
507655
752024
407905
142087
772828
339228
124434
697034
695845
907248
878294
310526
386743
809093
314913
534607
564389
334290
55686
696216
14535
194178
939440
213098
520603
901399
4146
549923
265654
357873
296048
637694
403969
746080
38035
674348
213665
667830
189222
845874
320615
628877
29066
272850
95229
796440
441655
868803
103270
999930
208532
438218
234393
116075
411951
642463
457521
526637
917433
248763
511903
849785
207930
126970
728412
591251
721180
881661
372128
650429
996901
885547
8107
92008
989464
561561
128529
359202
58855
236991
636737
274012
246444
814673
738585
817526
728749
332202
495836
868749
628338
845590
407203
369316
420916
560626
489956
2800
733407
723935
889339
120707
443194
815622
459733
942771
294931
859112
429935
195579
876618
659668
564368
26748
486226
365291
68198
832146
515602
507342
68198
602937
259622
879889
677032
441996
301998
477777
340016
147133
147431
224511
642463
396503
588701
57403
895306
647591
946190
392449
79250
535720
566180
265640
635500
603130
330901
965918
69431
96850
293738
18684
99097
622846
890106
515906
339231
788354
270121
400432
636670
389989
363391
86110
368171
758597
229340
816092
124712
212081
338922
461512
413085
881820
311114
633406
443622
954586
364492
43536
969849
634470
970527
921345
721275
698305
180577
44210
34628
83420
626944
935798
201407
578605
954688
848715
870060
591240
275721
381216
628338
860403
950716
342095
306157
851764
36219
112778
826870
756837
111918
327124
579913
282050
623854
54499
605371
315468
376129
435739
862813
232640
366646
856249
150852
125016
247290
771339
685398
414722
829106
793551
749340
536405
96033
137053
512879
552533
174152
241295
106969
511400
58311
677382
298557
725665
885680
